fname,mname,lname,phone
Carl1,Louis1,Calma1,351088719
Carl2,Louis2,Calma2,351088720
Carl3,Louis3,Calma3,351088721
Carl4,Louis4,Calma4,351088722
Carl5,Louis5,Calma5,351088723
Carl6,Louis6,Calma6,351088724
Carl7,Louis7,Calma7,351088725
Carl8,Louis8,Calma8,351088726
Carl9,Louis9,Calma9,351088727
Carl10,Louis10,Calma10,351088728
Carl11,Louis11,Calma11,351088729
Carl12,Louis12,Calma12,351088730
Carl13,Louis13,Calma13,351088731
Carl14,Louis14,Calma14,351088732
Carl15,Louis15,Calma15,351088733
Carl16,Louis16,Calma16,351088734
Carl17,Louis17,Calma17,351088735
Carl18,Louis18,Calma18,351088736
Carl19,Louis19,Calma19,351088737
Carl20,Louis20,Calma20,351088738
Carl21,Louis21,Calma21,351088739
Carl22,Louis22,Calma22,351088740
Carl23,Louis23,Calma23,351088741
Carl24,Louis24,Calma24,351088742
Carl25,Louis25,Calma25,351088743
Carl26,Louis26,Calma26,351088744
Carl27,Louis27,Calma27,351088745
Carl28,Louis28,Calma28,351088746
Carl29,Louis29,Calma29,351088747
Carl30,Louis30,Calma30,351088748
Carl31,Louis31,Calma31,351088749
Carl32,Louis32,Calma32,351088750
Carl33,Louis33,Calma33,351088751
Carl34,Louis34,Calma34,351088752
Carl35,Louis35,Calma35,351088753
Carl36,Louis36,Calma36,351088754
Carl37,Louis37,Calma37,351088755
Carl38,Louis38,Calma38,351088756
Carl39,Louis39,Calma39,351088757
Carl40,Louis40,Calma40,351088758
Carl41,Louis41,Calma41,351088759
Carl42,Louis42,Calma42,351088760
Carl43,Louis43,Calma43,351088761
Carl44,Louis44,Calma44,351088762
Carl45,Louis45,Calma45,351088763
Carl46,Louis46,Calma46,351088764
Carl47,Louis47,Calma47,351088765
Carl48,Louis48,Calma48,351088766
Carl49,Louis49,Calma49,351088767
Carl50,Louis50,Calma50,351088768
